{
  "project_info": {
    "project_number": "613911142751",
    "project_id": "parsl-38190",
    "storage_bucket": "parsl-38190.appspot.com"
  },
  "client": [
    {
      "client_info": {
        "mobilesdk_app_id": "1:613911142751:android:e2972b68df9c2fa45956ea",
        "android_client_info": {
          "package_name": "io.parsl.apps"
        }
      },
      "oauth_client": [
        {
          "client_id": "613911142751-p3snvan0mgoa57k7au59knqo2vtslmf6.apps.googleusercontent.com",
          "client_type": 3
        }
      ],
      "api_key": [
        {
          "current_key": "AIzaSyCyT7sqRgE-arsoQIj1wK4mpNgJZL2VlXI"
        }
      ],
      "services": {
        "appinvite_service": {
          "other_platform_oauth_client": [
            {
              "client_id": "613911142751-p3snvan0mgoa57k7au59knqo2vtslmf6.apps.googleusercontent.com",
              "client_type": 3
            },
            {
              "client_id": "613911142751-mmajgm9g9ucni8rsfof8b177orpnhgq6.apps.googleusercontent.com",
              "client_type": 2,
              "ios_info": {
                "bundle_id": "com.parsl.app",
                "app_store_id": "1558433040"
              }
            }
          ]
        }
      }
    }
  ],
  "configuration_version": "1"
}